<?xml version="1.0" encoding="utf-8"?>
<!-- Generator: Adobe Illustrator 18.1.0, SVG Export Plug-In . SVG Version: 6.00 Build 0)  -->
<svg version="1.1" id="Layer_1" xmlns:sketch="http://www.bohemiancoding.com/sketch/ns"
	 xmlns="http://www.w3.org/2000/svg" xmlns:xlink="http://www.w3.org/1999/xlink" x="0px" y="0px" viewBox="-1207 671 200 200"
	 enable-background="new -1207 671 200 200" xml:space="preserve">
<title>Email</title>
<description>Created with Sketch (http://www.bohemiancoding.com/sketch)</description>
<g id="Page-1" sketch:type="MSPage">
	<g>
		<path fill="#C2B59B" d="M-1107,676c-53,0-96,43-96,96s43,96,96,96c53,0,96-43,96-96S-1054,676-1107,676z M-1157.4,732.1h105.1
			c2.5,0,4.8,0.9,6.6,2.4l-61.6,42.6l-58.4-40.9C-1163.8,733.7-1160.8,732.1-1157.4,732.1z M-1041.7,800.4c0,5.8-4.7,10.5-10.5,10.5
			h-105.1c-5.8,0-10.5-4.7-10.5-10.5c0,0,0.1-55,0.3-55.8l60.3,41.9l0-10l0,10c0,0,65.5-45.6,65.5-43.9V800.4z"/>
	</g>
</g>
</svg>
